term_project/quartus/simulation/qsim/quartus.msim.vcd
$comment
	File created using the following command:
		vcd file quartus.msim.vcd -direction
$end
$date
	Wed Dec 22 17:38:24 2021
$end
$version
	ModelSim Version 2020.1
$end
$timescale
	1ps
$end

$scope module sram_8bitx8_vlg_vec_tst $end
$var reg 3 ! CE2_out [2:0] $end
$var reg 3 " CE_in [2:0] $end
$var reg 1 # clk $end
$var reg 3 $ DCE_out [2:0] $end
$var reg 8 % din [7:0] $end
$var reg 1 & reg_ce $end
$var reg 1 ' rst_n $end
$var wire 1 ( Dout2 [7] $end
$var wire 1 ) Dout2 [6] $end
$var wire 1 * Dout2 [5] $end
$var wire 1 + Dout2 [4] $end
$var wire 1 , Dout2 [3] $end
$var wire 1 - Dout2 [2] $end
$var wire 1 . Dout2 [1] $end
$var wire 1 / Dout2 [0] $end
$var wire 1 0 Out [7] $end
$var wire 1 1 Out [6] $end
$var wire 1 2 Out [5] $end
$var wire 1 3 Out [4] $end
$var wire 1 4 Out [3] $end
$var wire 1 5 Out [2] $end
$var wire 1 6 Out [1] $end
$var wire 1 7 Out [0] $end

$scope module i1 $end
$var wire 1 8 gnd $end
$var wire 1 9 vcc $end
$var wire 1 : unknown $end
$var tri1 1 ; devclrn $end
$var tri1 1 < devpor $end
$var tri1 1 = devoe $end
$var wire 1 > clk~combout $end
$var wire 1 ? rst_n~combout $end
$var wire 1 @ reg_ce~combout $end
$var wire 1 A inst99|inst35~5_combout $end
$var wire 1 B inst1|inst11~regout $end
$var wire 1 C inst99|inst35~6_combout $end
$var wire 1 D inst|inst11~regout $end
$var wire 1 E inst13|inst10~2 $end
$var wire 1 F inst10|inst10~2 $end
$var wire 1 G inst99|inst35~4_combout $end
$var wire 1 H inst2|inst11~regout $end
$var wire 1 I inst99|inst35~7_combout $end
$var wire 1 J inst3|inst11~regout $end
$var wire 1 K inst13|inst10~3 $end
$var wire 1 L inst99|inst35~1_combout $end
$var wire 1 M inst6|inst11~regout $end
$var wire 1 N inst99|inst35~2_combout $end
$var wire 1 O inst4|inst11~regout $end
$var wire 1 P inst13|inst10~0 $end
$var wire 1 Q inst99|inst35~0_combout $end
$var wire 1 R inst5|inst11~regout $end
$var wire 1 S inst10|inst10~0 $end
$var wire 1 T inst99|inst35~3_combout $end
$var wire 1 U inst7|inst11~regout $end
$var wire 1 V inst13|inst10~1 $end
$var wire 1 W inst13|inst10~4_combout $end
$var wire 1 X inst1|inst9~regout $end
$var wire 1 Y inst|inst9~regout $end
$var wire 1 Z inst13|inst19~2 $end
$var wire 1 [ inst2|inst9~regout $end
$var wire 1 \ inst10|inst19~2 $end
$var wire 1 ] inst3|inst9~regout $end
$var wire 1 ^ inst13|inst19~3 $end
$var wire 1 _ inst6|inst9~regout $end
$var wire 1 ` inst4|inst9~regout $end
$var wire 1 a inst13|inst19~0 $end
$var wire 1 b inst5|inst9~regout $end
$var wire 1 c inst10|inst19~0 $end
$var wire 1 d inst7|inst9~regout $end
$var wire 1 e inst13|inst19~1 $end
$var wire 1 f inst13|inst19~4_combout $end
$var wire 1 g inst1|inst5~regout $end
$var wire 1 h inst|inst5~regout $end
$var wire 1 i inst13|inst20~2 $end
$var wire 1 j inst2|inst5~regout $end
$var wire 1 k inst10|inst20~2 $end
$var wire 1 l inst3|inst5~regout $end
$var wire 1 m inst13|inst20~3 $end
$var wire 1 n inst6|inst5~regout $end
$var wire 1 o inst4|inst5~regout $end
$var wire 1 p inst13|inst20~0 $end
$var wire 1 q inst5|inst5~regout $end
$var wire 1 r inst10|inst20~0 $end
$var wire 1 s inst7|inst5~regout $end
$var wire 1 t inst13|inst20~1 $end
$var wire 1 u inst13|inst20~4_combout $end
$var wire 1 v inst6|inst4~regout $end
$var wire 1 w inst4|inst4~regout $end
$var wire 1 x inst13|inst21~0 $end
$var wire 1 y inst5|inst4~regout $end
$var wire 1 z inst10|inst21~0 $end
$var wire 1 { inst7|inst4~regout $end
$var wire 1 | inst13|inst21~1 $end
$var wire 1 } inst1|inst4~regout $end
$var wire 1 ~ inst|inst4~regout $end
$var wire 1 !! inst13|inst21~2 $end
$var wire 1 "! inst2|inst4~regout $end
$var wire 1 #! inst10|inst21~2 $end
$var wire 1 $! inst3|inst4~regout $end
$var wire 1 %! inst13|inst21~3 $end
$var wire 1 &! inst13|inst21~4_combout $end
$var wire 1 '! inst6|inst3~regout $end
$var wire 1 (! inst4|inst3~regout $end
$var wire 1 )! inst13|inst22~0 $end
$var wire 1 *! inst5|inst3~regout $end
$var wire 1 +! inst10|inst22~0 $end
$var wire 1 ,! inst7|inst3~regout $end
$var wire 1 -! inst13|inst22~1 $end
$var wire 1 .! inst|inst3~regout $end
$var wire 1 /! inst1|inst3~regout $end
$var wire 1 0! inst10|inst22~2 $end
$var wire 1 1! inst13|inst22~2 $end
$var wire 1 2! inst2|inst3~regout $end
$var wire 1 3! inst3|inst3~regout $end
$var wire 1 4! inst13|inst22~3 $end
$var wire 1 5! inst13|inst22~4_combout $end
$var wire 1 6! inst|inst2~regout $end
$var wire 1 7! inst1|inst2~regout $end
$var wire 1 8! inst10|inst23~2 $end
$var wire 1 9! inst13|inst23~2 $end
$var wire 1 :! inst2|inst2~regout $end
$var wire 1 ;! inst3|inst2~regout $end
$var wire 1 <! inst13|inst23~3 $end
$var wire 1 =! inst4|inst2~regout $end
$var wire 1 >! inst6|inst2~regout $end
$var wire 1 ?! inst10|inst23~0 $end
$var wire 1 @! inst13|inst23~0 $end
$var wire 1 A! inst5|inst2~regout $end
$var wire 1 B! inst7|inst2~regout $end
$var wire 1 C! inst13|inst23~1 $end
$var wire 1 D! inst13|inst23~4_combout $end
$var wire 1 E! inst6|inst1~regout $end
$var wire 1 F! inst4|inst1~regout $end
$var wire 1 G! inst13|inst24~0 $end
$var wire 1 H! inst5|inst1~regout $end
$var wire 1 I! inst10|inst24~0 $end
$var wire 1 J! inst7|inst1~regout $end
$var wire 1 K! inst13|inst24~1 $end
$var wire 1 L! inst|inst1~regout $end
$var wire 1 M! inst1|inst1~regout $end
$var wire 1 N! inst10|inst24~2 $end
$var wire 1 O! inst13|inst24~2 $end
$var wire 1 P! inst2|inst1~regout $end
$var wire 1 Q! inst3|inst1~regout $end
$var wire 1 R! inst13|inst24~3 $end
$var wire 1 S! inst13|inst24~4_combout $end
$var wire 1 T! inst6|inst~regout $end
$var wire 1 U! inst4|inst~regout $end
$var wire 1 V! inst13|inst25~0 $end
$var wire 1 W! inst5|inst~regout $end
$var wire 1 X! inst10|inst25~0 $end
$var wire 1 Y! inst7|inst~regout $end
$var wire 1 Z! inst13|inst25~1 $end
$var wire 1 [! inst1|inst~regout $end
$var wire 1 \! inst|inst~regout $end
$var wire 1 ]! inst13|inst25~2 $end
$var wire 1 ^! inst2|inst~regout $end
$var wire 1 _! inst10|inst25~2 $end
$var wire 1 `! inst3|inst~regout $end
$var wire 1 a! inst13|inst25~3 $end
$var wire 1 b! inst13|inst25~4_combout $end
$var wire 1 c! inst10|inst10~3 $end
$var wire 1 d! inst10|inst10~1 $end
$var wire 1 e! inst10|inst10~4_combout $end
$var wire 1 f! inst10|inst19~3 $end
$var wire 1 g! inst10|inst19~1 $end
$var wire 1 h! inst10|inst19~4_combout $end
$var wire 1 i! inst10|inst20~1 $end
$var wire 1 j! inst10|inst20~3 $end
$var wire 1 k! inst10|inst20~4_combout $end
$var wire 1 l! inst10|inst21~1 $end
$var wire 1 m! inst10|inst21~3 $end
$var wire 1 n! inst10|inst21~4_combout $end
$var wire 1 o! inst10|inst22~1 $end
$var wire 1 p! inst10|inst22~3 $end
$var wire 1 q! inst10|inst22~4_combout $end
$var wire 1 r! inst10|inst23~3 $end
$var wire 1 s! inst10|inst23~1 $end
$var wire 1 t! inst10|inst23~4_combout $end
$var wire 1 u! inst10|inst24~1 $end
$var wire 1 v! inst10|inst24~3 $end
$var wire 1 w! inst10|inst24~4_combout $end
$var wire 1 x! inst10|inst25~1 $end
$var wire 1 y! inst10|inst25~3 $end
$var wire 1 z! inst10|inst25~4_combout $end
$var wire 1 {! CE2_out~combout [2] $end
$var wire 1 |! CE2_out~combout [1] $end
$var wire 1 }! CE2_out~combout [0] $end
$var wire 1 ~! DCE_out~combout [2] $end
$var wire 1 !" DCE_out~combout [1] $end
$var wire 1 "" DCE_out~combout [0] $end
$var wire 1 #" din~combout [7] $end
$var wire 1 $" din~combout [6] $end
$var wire 1 %" din~combout [5] $end
$var wire 1 &" din~combout [4] $end
$var wire 1 '" din~combout [3] $end
$var wire 1 (" din~combout [2] $end
$var wire 1 )" din~combout [1] $end
$var wire 1 *" din~combout [0] $end
$var wire 1 +" CE_in~combout [2] $end
$var wire 1 ," CE_in~combout [1] $end
$var wire 1 -" CE_in~combout [0] $end
$upscope $end
$upscope $end
$enddefinitions $end
#0
$dumpvars
b0 !
b0 "
0#
b0 $
b0 %
0&
1'
0/
0.
0-
0,
0+
0*
0)
0(
07
06
05
04
03
02
01
00
08
19
x:
1;
1<
1=
0>
1?
0@
0A
0B
0C
0D
0E
0F
0G
0H
0I
0J
0K
0L
0M
0N
0O
0P
0Q
0R
0S
0T
0U
0V
0W
0X
0Y
0Z
0[
0\
0]
0^
0_
0`
0a
0b
0c
0d
0e
0f
0g
0h
0i
0j
0k
0l
0m
0n
0o
0p
0q
0r
0s
0t
0u
0v
0w
0x
0y
0z
0{
0|
0}
0~
0!!
0"!
0#!
0$!
0%!
0&!
0'!
0(!
0)!
0*!
0+!
0,!
0-!
0.!
0/!
00!
01!
02!
03!
04!
05!
06!
07!
08!
09!
0:!
0;!
0<!
0=!
0>!
0?!
0@!
0A!
0B!
0C!
0D!
0E!
0F!
0G!
0H!
0I!
0J!
0K!
0L!
0M!
0N!
0O!
0P!
0Q!
0R!
0S!
0T!
0U!
0V!
0W!
0X!
0Y!
0Z!
0[!
0\!
0]!
0^!
0_!
0`!
0a!
0b!
0c!
0d!
0e!
0f!
0g!
0h!
0i!
0j!
0k!
0l!
0m!
0n!
0o!
0p!
0q!
0r!
0s!
0t!
0u!
0v!
0w!
0x!
0y!
0z!
0}!
0|!
0{!
0""
0!"
0~!
0*"
0)"
0("
0'"
0&"
0%"
0$"
0#"
0-"
0,"
0+"
$end
#10000
1#
1>
#20000
0#
0>
#30000
1#
1>
#40000
0#
0>
#50000
1#
1>
#60000
b10000000 %
b11000000 %
b11100000 %
0#
1%"
1$"
1#"
0>
#70000
b100 "
b110 "
1&
1#
1,"
1+"
1@
1>
1L
#80000
0#
0>
#90000
1#
1>
1n
1_
1M
#100000
0#
0>
#110000
1#
1>
#120000
0#
0>
#130000
b10 "
b0 "
0&
1#
0,"
0+"
0@
1>
0L
#140000
b1100000 %
b100000 %
b0 %
0#
0%"
0$"
0#"
0>
#150000
1#
1>
#160000
0#
0>
#170000
1#
1>
#180000
b1 "
b1000 %
b1100 %
b1110 %
b1111 %
b101 "
b111 "
1&
b10001111 %
b11001111 %
b11101111 %
0#
1*"
1)"
1("
1'"
1%"
1$"
1#"
1-"
1,"
1+"
1@
0>
1T
#190000
1#
1>
1Y!
1J!
1B!
1,!
1s
1d
1U
#200000
0#
0>
#210000
1#
1>
#220000
0#
0>
#230000
1#
1>
#240000
0#
0>
#250000
1#
1>
#260000
b110 "
b11100111 %
b11100011 %
b11100001 %
b11100000 %
b10 "
b0 "
0&
b1100000 %
b100000 %
b0 %
0#
0*"
0)"
0("
0'"
0%"
0$"
0#"
0-"
0,"
0+"
0@
0>
0T
#270000
1#
1>
#280000
0#
0>
#290000
1#
1>
#300000
0#
0>
#310000
1#
1>
#320000
b100 $
b110 $
b111 $
b100 !
b110 !
0#
1|!
1{!
1""
1!"
1~!
0>
1p
1a
1P
1_!
1X!
1N!
1I!
1?!
18!
10!
1+!
1#!
1z
1r
1k
1c
1\
1S
1F
1t
1e
1V
1x!
1u!
1s!
1o!
1i!
1g!
1d!
1u
1f
1W
1z!
1w!
1t!
1q!
1k!
1h!
1e!
1*
1)
1(
17
16
15
14
12
11
10
#330000
1#
1>
#340000
0#
0>
#350000
1#
1>
#360000
0#
0>
#370000
1#
1>
#380000
0#
0>
#390000
1#
1>
#400000
0#
0>
#410000
1#
1>
#420000
0#
0>
#430000
1#
1>
#440000
0#
0>
#450000
1#
1>
#460000
b11 $
b1 $
b0 $
b10 !
b0 !
0#
0|!
0{!
0""
0!"
0~!
0>
0p
0a
0P
0u
0f
0W
0_!
0X!
0N!
0I!
0?!
08!
00!
0+!
0#!
1l!
0z
0r
0k
0c
0\
0S
0F
1y!
1v!
1r!
1p!
1m!
1j!
1f!
1c!
0z!
0w!
0t!
0q!
0k!
0h!
0e!
0t
0e
0V
0y!
0x!
0v!
0u!
0s!
0r!
0p!
0o!
0m!
1n!
0l!
0i!
0j!
0g!
0f!
0d!
0c!
1z!
1w!
1t!
1q!
1k!
1h!
1e!
0*
0)
0(
07
06
05
04
02
01
00
0z!
0w!
0t!
0q!
0n!
0k!
0h!
0e!
13
17
16
15
14
12
11
10
07
06
05
04
03
02
01
00
#470000
1#
1>
#480000
0#
0>
#490000
1#
1>
#500000
0#
0>
#510000
1#
1>
#520000
0#
0>
#530000
1#
1>
#540000
b1 !
b101 !
b111 !
0#
1}!
1|!
1{!
0>
1]!
1V!
1O!
1G!
1@!
19!
11!
1)!
1!!
1x
1p
1i
1a
1Z
1P
1E
1Z!
1K!
1C!
1-!
1t
1e
1V
1b!
1S!
1D!
15!
1u
1f
1W
1/
1.
1-
1,
1*
1)
1(
#550000
1#
1>
#560000
0#
0>
#570000
1#
1>
#580000
0#
0>
#590000
1#
1>
#600000
0#
0>
#610000
1#
1>
#620000
b110 !
b10 !
b0 !
0#
0}!
0|!
0{!
0>
0]!
0V!
0O!
0G!
0@!
09!
01!
0)!
0!!
1|
0x
0p
0i
0a
0Z
0P
0E
1a!
1R!
1<!
14!
1%!
1m
1^
1K
0b!
0S!
0D!
05!
0u
0f
0W
0a!
0Z!
0R!
0K!
0C!
0<!
04!
0-!
0%!
1&!
0|
0t
0m
0e
0^
0V
0K
1b!
1S!
1D!
15!
1u
1f
1W
0/
0.
0-
0,
0*
0)
0(
0b!
0S!
0D!
05!
0&!
0u
0f
0W
1+
1/
1.
1-
1,
1*
1)
1(
0/
0.
0-
0,
0+
0*
0)
0(
#630000
1#
1>
#640000
0#
0>
#650000
1#
1>
#660000
0#
0>
#670000
1#
1>
#680000
0#
0>
#690000
1#
1>
#700000
0#
0>
#710000
1#
1>
#720000
0#
0>
#730000
1#
1>
#740000
0#
0>
#750000
1#
1>
#760000
0#
0>
#770000
1#
1>
#780000
0#
0>
#790000
1#
1>
#800000
0#
0>
#810000
1#
1>
#820000
0#
0>
#830000
1#
1>
#840000
0#
0>
#850000
1#
1>
#860000
0#
0>
#870000
1#
1>
#880000
0#
0>
#890000
1#
1>
#900000
0#
0>
#910000
1#
1>
#920000
0#
0>
#930000
1#
1>
#940000
0#
0>
#950000
1#
1>
#960000
0#
0>
#970000
1#
1>
#980000
0#
0>
#990000
1#
1>
