term_project/quartus/simulation/qsim/quartus.msim.vcd
$comment
	File created using the following command:
		vcd file quartus.msim.vcd -direction
$end
$date
	Tue Dec 21 17:35:52 2021
$end
$version
	ModelSim Version 2020.1
$end
$timescale
	1ps
$end

$scope module sram_8bitx8_vlg_vec_tst $end
$var reg 3 ! CE_in [2:0] $end
$var reg 1 " CE_out0 $end
$var reg 1 # CE_out1 $end
$var reg 1 $ CE_out2 $end
$var reg 1 % CE_out20 $end
$var reg 1 & CE_out21 $end
$var reg 1 ' CE_out22 $end
$var reg 1 ( clk $end
$var reg 8 ) din [7:0] $end
$var reg 1 * reg_ce $end
$var reg 1 + rst_n $end
$var wire 1 , Out0 $end
$var wire 1 - Out1 $end
$var wire 1 . Out2 $end
$var wire 1 / Out3 $end
$var wire 1 0 Out4 $end
$var wire 1 1 Out5 $end
$var wire 1 2 Out6 $end
$var wire 1 3 Out7 $end
$var wire 1 4 Out20 $end
$var wire 1 5 Out21 $end
$var wire 1 6 Out22 $end
$var wire 1 7 Out23 $end
$var wire 1 8 Out24 $end
$var wire 1 9 Out25 $end
$var wire 1 : Out26 $end
$var wire 1 ; Out27 $end

$scope module i1 $end
$var wire 1 < gnd $end
$var wire 1 = vcc $end
$var wire 1 > unknown $end
$var tri1 1 ? devclrn $end
$var tri1 1 @ devpor $end
$var tri1 1 A devoe $end
$var wire 1 B clk~combout $end
$var wire 1 C CE_out20~combout $end
$var wire 1 D CE_out1~combout $end
$var wire 1 E CE_out0~combout $end
$var wire 1 F rst_n~combout $end
$var wire 1 G reg_ce~combout $end
$var wire 1 H inst99|inst35~5_combout $end
$var wire 1 I inst1|inst11~regout $end
$var wire 1 J CE_out21~combout $end
$var wire 1 K inst99|inst35~6_combout $end
$var wire 1 L inst|inst11~regout $end
$var wire 1 M inst10|inst10~2 $end
$var wire 1 N inst13|inst10~2 $end
$var wire 1 O inst99|inst35~4_combout $end
$var wire 1 P inst2|inst11~regout $end
$var wire 1 Q inst99|inst35~7_combout $end
$var wire 1 R inst3|inst11~regout $end
$var wire 1 S inst10|inst10~3 $end
$var wire 1 T CE_out2~combout $end
$var wire 1 U inst99|inst35~1_combout $end
$var wire 1 V inst6|inst11~regout $end
$var wire 1 W inst99|inst35~2_combout $end
$var wire 1 X inst4|inst11~regout $end
$var wire 1 Y inst10|inst10~0 $end
$var wire 1 Z inst99|inst35~0_combout $end
$var wire 1 [ inst5|inst11~regout $end
$var wire 1 \ inst13|inst10~0 $end
$var wire 1 ] inst99|inst35~3_combout $end
$var wire 1 ^ inst7|inst11~regout $end
$var wire 1 _ inst10|inst10~1 $end
$var wire 1 ` inst10|inst10~4_combout $end
$var wire 1 a inst1|inst9~regout $end
$var wire 1 b inst|inst9~regout $end
$var wire 1 c inst10|inst19~2 $end
$var wire 1 d inst2|inst9~regout $end
$var wire 1 e inst13|inst19~2 $end
$var wire 1 f inst3|inst9~regout $end
$var wire 1 g inst10|inst19~3 $end
$var wire 1 h inst6|inst9~regout $end
$var wire 1 i inst4|inst9~regout $end
$var wire 1 j inst10|inst19~0 $end
$var wire 1 k inst5|inst9~regout $end
$var wire 1 l inst13|inst19~0 $end
$var wire 1 m inst7|inst9~regout $end
$var wire 1 n inst10|inst19~1 $end
$var wire 1 o inst10|inst19~4_combout $end
$var wire 1 p inst1|inst5~regout $end
$var wire 1 q inst|inst5~regout $end
$var wire 1 r inst10|inst20~2 $end
$var wire 1 s inst2|inst5~regout $end
$var wire 1 t inst13|inst20~2 $end
$var wire 1 u inst3|inst5~regout $end
$var wire 1 v inst10|inst20~3 $end
$var wire 1 w inst6|inst5~regout $end
$var wire 1 x inst4|inst5~regout $end
$var wire 1 y inst10|inst20~0 $end
$var wire 1 z inst5|inst5~regout $end
$var wire 1 { inst13|inst20~0 $end
$var wire 1 | inst7|inst5~regout $end
$var wire 1 } inst10|inst20~1 $end
$var wire 1 ~ inst10|inst20~4_combout $end
$var wire 1 !! inst6|inst4~regout $end
$var wire 1 "! inst4|inst4~regout $end
$var wire 1 #! inst10|inst21~0 $end
$var wire 1 $! inst5|inst4~regout $end
$var wire 1 %! inst13|inst21~0 $end
$var wire 1 &! inst7|inst4~regout $end
$var wire 1 '! inst10|inst21~1 $end
$var wire 1 (! inst1|inst4~regout $end
$var wire 1 )! inst|inst4~regout $end
$var wire 1 *! inst10|inst21~2 $end
$var wire 1 +! inst2|inst4~regout $end
$var wire 1 ,! inst13|inst21~2 $end
$var wire 1 -! inst3|inst4~regout $end
$var wire 1 .! inst10|inst21~3 $end
$var wire 1 /! inst10|inst21~4_combout $end
$var wire 1 0! inst6|inst3~regout $end
$var wire 1 1! inst4|inst3~regout $end
$var wire 1 2! inst10|inst22~0 $end
$var wire 1 3! inst5|inst3~regout $end
$var wire 1 4! inst13|inst22~0 $end
$var wire 1 5! inst7|inst3~regout $end
$var wire 1 6! inst10|inst22~1 $end
$var wire 1 7! inst|inst3~regout $end
$var wire 1 8! inst1|inst3~regout $end
$var wire 1 9! inst13|inst22~2 $end
$var wire 1 :! inst10|inst22~2 $end
$var wire 1 ;! inst2|inst3~regout $end
$var wire 1 <! inst3|inst3~regout $end
$var wire 1 =! inst10|inst22~3 $end
$var wire 1 >! inst10|inst22~4_combout $end
$var wire 1 ?! inst|inst2~regout $end
$var wire 1 @! inst1|inst2~regout $end
$var wire 1 A! inst13|inst23~2 $end
$var wire 1 B! inst10|inst23~2 $end
$var wire 1 C! inst2|inst2~regout $end
$var wire 1 D! inst3|inst2~regout $end
$var wire 1 E! inst10|inst23~3 $end
$var wire 1 F! inst4|inst2~regout $end
$var wire 1 G! inst6|inst2~regout $end
$var wire 1 H! inst13|inst23~0 $end
$var wire 1 I! inst10|inst23~0 $end
$var wire 1 J! inst5|inst2~regout $end
$var wire 1 K! inst7|inst2~regout $end
$var wire 1 L! inst10|inst23~1 $end
$var wire 1 M! inst10|inst23~4_combout $end
$var wire 1 N! inst6|inst1~regout $end
$var wire 1 O! inst4|inst1~regout $end
$var wire 1 P! inst10|inst24~0 $end
$var wire 1 Q! inst5|inst1~regout $end
$var wire 1 R! inst13|inst24~0 $end
$var wire 1 S! inst7|inst1~regout $end
$var wire 1 T! inst10|inst24~1 $end
$var wire 1 U! inst|inst1~regout $end
$var wire 1 V! inst1|inst1~regout $end
$var wire 1 W! inst13|inst24~2 $end
$var wire 1 X! inst10|inst24~2 $end
$var wire 1 Y! inst2|inst1~regout $end
$var wire 1 Z! inst3|inst1~regout $end
$var wire 1 [! inst10|inst24~3 $end
$var wire 1 \! inst10|inst24~4_combout $end
$var wire 1 ]! inst6|inst~regout $end
$var wire 1 ^! inst4|inst~regout $end
$var wire 1 _! inst10|inst25~0 $end
$var wire 1 `! inst5|inst~regout $end
$var wire 1 a! inst13|inst25~0 $end
$var wire 1 b! inst7|inst~regout $end
$var wire 1 c! inst10|inst25~1 $end
$var wire 1 d! inst1|inst~regout $end
$var wire 1 e! inst|inst~regout $end
$var wire 1 f! inst10|inst25~2 $end
$var wire 1 g! inst2|inst~regout $end
$var wire 1 h! inst13|inst25~2 $end
$var wire 1 i! inst3|inst~regout $end
$var wire 1 j! inst10|inst25~3 $end
$var wire 1 k! inst10|inst25~4_combout $end
$var wire 1 l! CE_out22~combout $end
$var wire 1 m! inst13|inst10~3 $end
$var wire 1 n! inst13|inst10~1 $end
$var wire 1 o! inst13|inst10~4_combout $end
$var wire 1 p! inst13|inst19~3 $end
$var wire 1 q! inst13|inst19~1 $end
$var wire 1 r! inst13|inst19~4_combout $end
$var wire 1 s! inst13|inst20~1 $end
$var wire 1 t! inst13|inst20~3 $end
$var wire 1 u! inst13|inst20~4_combout $end
$var wire 1 v! inst13|inst21~1 $end
$var wire 1 w! inst13|inst21~3 $end
$var wire 1 x! inst13|inst21~4_combout $end
$var wire 1 y! inst13|inst22~1 $end
$var wire 1 z! inst13|inst22~3 $end
$var wire 1 {! inst13|inst22~4_combout $end
$var wire 1 |! inst13|inst23~3 $end
$var wire 1 }! inst13|inst23~1 $end
$var wire 1 ~! inst13|inst23~4_combout $end
$var wire 1 !" inst13|inst24~1 $end
$var wire 1 "" inst13|inst24~3 $end
$var wire 1 #" inst13|inst24~4_combout $end
$var wire 1 $" inst13|inst25~1 $end
$var wire 1 %" inst13|inst25~3 $end
$var wire 1 &" inst13|inst25~4_combout $end
$var wire 1 '" din~combout [7] $end
$var wire 1 (" din~combout [6] $end
$var wire 1 )" din~combout [5] $end
$var wire 1 *" din~combout [4] $end
$var wire 1 +" din~combout [3] $end
$var wire 1 ," din~combout [2] $end
$var wire 1 -" din~combout [1] $end
$var wire 1 ." din~combout [0] $end
$var wire 1 /" CE_in~combout [2] $end
$var wire 1 0" CE_in~combout [1] $end
$var wire 1 1" CE_in~combout [0] $end
$upscope $end
$upscope $end
$enddefinitions $end
#0
$dumpvars
b0 !
0"
0#
0$
0%
0&
0'
0(
b11110000 )
1*
1+
0,
0-
0.
0/
00
01
02
03
04
05
06
07
08
09
0:
0;
0<
1=
x>
1?
1@
1A
0B
0C
0D
0E
1F
1G
0H
0I
0J
1K
0L
0M
0N
0O
0P
0Q
0R
0S
0T
0U
0V
0W
0X
0Y
0Z
0[
0\
0]
0^
0_
0`
0a
0b
0c
0d
0e
0f
0g
0h
0i
0j
0k
0l
0m
0n
0o
0p
0q
0r
0s
0t
0u
0v
0w
0x
0y
0z
0{
0|
0}
0~
0!!
0"!
0#!
0$!
0%!
0&!
0'!
0(!
0)!
0*!
0+!
0,!
0-!
0.!
0/!
00!
01!
02!
03!
04!
05!
06!
07!
08!
09!
0:!
0;!
0<!
0=!
0>!
0?!
0@!
0A!
0B!
0C!
0D!
0E!
0F!
0G!
0H!
0I!
0J!
0K!
0L!
0M!
0N!
0O!
0P!
0Q!
0R!
0S!
0T!
0U!
0V!
0W!
0X!
0Y!
0Z!
0[!
0\!
0]!
0^!
0_!
0`!
0a!
0b!
0c!
0d!
0e!
0f!
0g!
0h!
0i!
0j!
0k!
0l!
0m!
0n!
0o!
0p!
0q!
0r!
0s!
0t!
0u!
0v!
0w!
0x!
0y!
0z!
0{!
0|!
0}!
0~!
0!"
0""
0#"
0$"
0%"
0&"
0."
0-"
0,"
0+"
1*"
1)"
1("
1'"
01"
00"
0/"
$end
#20000
b100 !
b110 !
1(
10"
1/"
1B
1U
0K
1)!
1q
1b
1L
1*!
1r
1c
1M
1,!
1t
1e
1N
1.!
1v
1g
1S
1w!
1t!
1p!
1m!
1/!
1~
1o
1`
1x!
1u!
1r!
1o!
10
11
12
13
18
19
1:
1;
#40000
0(
0B
#60000
1(
1B
1!!
1w
1h
1V
#80000
0(
0B
#100000
b10 !
b0 !
1(
00"
0/"
1B
0U
1K
#120000
b1110000 )
b110000 )
b10000 )
b0 )
0(
0*"
0)"
0("
0'"
0B
#140000
1(
1B
0)!
0q
0b
0L
0*!
0r
0c
0M
0,!
0t
0e
0N
0.!
0v
0g
0S
0w!
0t!
0p!
0m!
0/!
0~
0o
0`
0x!
0u!
0r!
0o!
00
01
02
03
08
09
0:
0;
#160000
0(
0B
#180000
1(
1B
#190000
b1000 )
b1100 )
b1110 )
b1111 )
b101111 )
b111111 )
1."
1-"
1,"
1+"
1*"
1)"
#200000
0(
0B
#210000
b1 !
b11 !
11"
10"
1Q
0K
#220000
1(
1B
1i!
1Z!
1D!
1<!
1-!
1u
#240000
0(
0B
#260000
1(
1B
#270000
b10 !
b0 !
01"
00"
0Q
1K
#280000
b110111 )
b110011 )
b110001 )
b110000 )
b10000 )
b0 )
0(
0."
0-"
0,"
0+"
0*"
0)"
0B
#300000
1(
1B
#320000
b10000000 )
b11000000 )
0(
1("
1'"
0B
#330000
b100 !
b101 !
b111 !
11"
10"
1/"
1]
0K
#340000
1(
1B
1m
1^
#360000
0(
0B
#380000
1(
1B
#400000
0(
0B
#420000
1(
1B
#440000
b1000000 )
b0 )
b11 !
b10 !
b0 !
0(
01"
00"
0/"
0("
0'"
0B
0]
1K
#460000
1(
1B
#480000
0(
0B
#500000
1(
1B
#510000
0*
0G
0K
#520000
0(
0B
#540000
1(
1B
#560000
0(
0B
#580000
1(
1B
#600000
0(
0B
#620000
1#
1$
1(
1D
1T
1B
1#!
1y
1j
1Y
1'!
1}
1n
1_
1/!
1~
1o
1`
10
11
12
13
#640000
0(
0B
#660000
1(
1B
#680000
1%
1&
1'
0#
0$
0(
1C
1J
1l!
0D
0T
0B
1h!
1a!
1W!
1R!
1H!
1A!
19!
14!
1,!
1%!
1{
1t
1l
1e
1\
1N
0#!
0y
0j
0Y
0/!
0~
0o
0`
1%"
1""
1|!
1z!
1w!
1t!
1q!
1n!
0'!
0}
0n
0_
00
01
02
03
1r!
1o!
1:
1;
#700000
1(
1B
#720000
0(
0B
#740000
1(
1B
#750000
0%
0&
0'
0C
0J
0l!
0h!
1$"
0a!
0W!
1!"
0R!
1}!
0H!
0A!
09!
1y!
04!
0,!
1v!
0%!
1s!
0{
0t
0l
0e
0\
0N
1p!
1m!
1&"
1#"
1~!
1{!
1x!
1u!
0r!
0o!
0%"
0$"
0""
0!"
0}!
0|!
0z!
0y!
0w!
0v!
0s!
0t!
0q!
0p!
0n!
0m!
1r!
1o!
14
15
16
17
18
19
0:
0;
0&"
0#"
0~!
0{!
0x!
0u!
0r!
0o!
1:
1;
04
05
06
07
08
09
0:
0;
#760000
1"
1#
0(
1E
1D
0B
1f!
1_!
1X!
1P!
1I!
1B!
1:!
12!
1*!
1#!
1y
1r
1j
1c
1Y
1M
1j!
1[!
1E!
1=!
1.!
1v
1n
1_
1k!
1\!
1M!
1>!
1/!
1~
1,
1-
1.
1/
10
11
#780000
1(
1B
#800000
0"
0#
0(
0E
0D
0B
0f!
1c!
0_!
0X!
1T!
0P!
1L!
0I!
0B!
0:!
16!
02!
0*!
1'!
0#!
1}
0y
0r
0j
0c
0Y
0M
1g
1S
0j!
0c!
0[!
0T!
0L!
0E!
0=!
06!
0.!
0'!
0}
0v
0n
0g
0_
0S
1o
1`
0k!
0\!
0M!
0>!
0/!
0~
0o
0`
12
13
0,
0-
0.
0/
00
01
02
03
#820000
1(
1B
#840000
0(
0B
#860000
1$
1%
1&
1'
1"
1#
1(
1T
1C
1J
1l!
1E
1D
1B
1h!
1a!
1W!
1R!
1H!
1A!
19!
14!
1,!
1%!
1{
1t
1l
1e
1\
1N
1f!
1_!
1X!
1P!
1I!
1B!
1:!
12!
1*!
1#!
1y
1r
1j
1c
1Y
1M
1%"
1""
1|!
1z!
1w!
1t!
1q!
1n!
1j!
1[!
1E!
1=!
1.!
1v
1n
1_
1r!
1o!
1o
1`
1:
1;
12
13
#880000
0(
0B
#900000
1(
1B
#920000
0(
0B
#940000
1(
1B
#950000
0$
0%
0&
0'
0"
0#
0T
0C
0J
0l!
0E
0D
1k!
1\!
1M!
1>!
1/!
1~
0o
0`
0h!
1$"
0a!
0W!
1!"
0R!
1}!
0H!
0A!
09!
1y!
04!
0,!
1v!
0%!
1s!
0{
0t
0l
0e
0\
0N
1p!
1m!
1&"
1#"
1~!
1{!
1x!
1u!
0r!
0o!
0f!
1c!
0_!
0X!
1T!
0P!
1L!
0I!
0B!
0:!
16!
02!
0*!
1'!
0#!
1}
0y
0r
0j
0c
0Y
0M
1g
1S
0%"
0$"
0""
0!"
0}!
0|!
0z!
0y!
0w!
0v!
0s!
0t!
0q!
0p!
0n!
0m!
1r!
1o!
0j!
0c!
0[!
0T!
0L!
0E!
0=!
06!
0.!
0'!
0}
0v
0n
0g
0_
0S
1o
1`
1,
1-
1.
1/
10
11
02
03
14
15
16
17
18
19
0:
0;
0&"
0#"
0~!
0{!
0x!
0u!
0r!
0o!
0k!
0\!
0M!
0>!
0/!
0~
0o
0`
1:
1;
12
13
04
05
06
07
08
09
0:
0;
0,
0-
0.
0/
00
01
02
03
#960000
0(
0B
#980000
1*
1(
1G
1B
1K
