term_project/quartus/simulation/qsim/quartus.msim.vcd
$comment
	File created using the following command:
		vcd file quartus.msim.vcd -direction
$end
$date
	Sun Dec 19 22:50:10 2021
$end
$version
	ModelSim Version 2020.1
$end
$timescale
	1ps
$end

$scope module shw_module_vlg_vec_tst $end
$var reg 1 ! clk $end
$var reg 8 " Din [7:0] $end
$var reg 1 # is_SHW $end
$var reg 1 $ rst $end
$var wire 1 % a $end
$var wire 1 & b $end
$var wire 1 ' c $end
$var wire 1 ( com1 $end
$var wire 1 ) com2 $end
$var wire 1 * com3 $end
$var wire 1 + com4 $end
$var wire 1 , com5 $end
$var wire 1 - com6 $end
$var wire 1 . com7 $end
$var wire 1 / com8 $end
$var wire 1 0 d $end
$var wire 1 1 e $end
$var wire 1 2 f $end
$var wire 1 3 g $end

$scope module i1 $end
$var wire 1 4 gnd $end
$var wire 1 5 vcc $end
$var wire 1 6 unknown $end
$var tri1 1 7 devclrn $end
$var tri1 1 8 devpor $end
$var tri1 1 9 devoe $end
$var wire 1 : clk~combout $end
$var wire 1 ; rst~combout $end
$var wire 1 < inst3|inst2~regout $end
$var wire 1 = inst3|inst1~regout $end
$var wire 1 > inst3|inst~regout $end
$var wire 1 ? inst21|inst2~2_combout $end
$var wire 1 @ inst21|inst2~3_combout $end
$var wire 1 A inst21|inst2~0_combout $end
$var wire 1 B inst21|inst2~1_combout $end
$var wire 1 C inst21|inst2~4_combout $end
$var wire 1 D is_SHW~combout $end
$var wire 1 E inst44|inst1~combout $end
$var wire 1 F inst44|inst2~combout $end
$var wire 1 G inst44|inst13~combout $end
$var wire 1 H inst~0_combout $end
$var wire 1 I inst~1_combout $end
$var wire 1 J inst~2_combout $end
$var wire 1 K inst~3_combout $end
$var wire 1 L inst~4_combout $end
$var wire 1 M inst~5_combout $end
$var wire 1 N inst~6_combout $end
$var wire 1 O inst~7_combout $end
$var wire 1 P Din~combout [7] $end
$var wire 1 Q Din~combout [6] $end
$var wire 1 R Din~combout [5] $end
$var wire 1 S Din~combout [4] $end
$var wire 1 T Din~combout [3] $end
$var wire 1 U Din~combout [2] $end
$var wire 1 V Din~combout [1] $end
$var wire 1 W Din~combout [0] $end
$upscope $end
$upscope $end
$enddefinitions $end
#0
$dumpvars
0!
b0 "
0#
1$
0%
0&
0'
1(
1)
1*
1+
1,
1-
1.
0/
00
01
02
03
04
15
x6
17
18
19
0:
1;
0<
0=
0>
0?
0@
0A
0B
0C
0D
0E
0F
0G
1H
0I
0J
0K
0L
0M
0N
0O
0W
0V
0U
0T
0S
0R
0Q
0P
$end
#20000
1!
1:
1<
1I
0H
1/
0.
#30000
b10000 "
b11000 "
b11100 "
b11110 "
b11111 "
1W
1V
1U
1T
1S
1?
1@
1C
#40000
0!
0:
#60000
1!
1:
1=
0<
1J
0I
0?
1.
0-
#80000
0!
0:
#100000
1!
1:
1<
1K
0J
1A
1?
1-
0,
#120000
0!
0:
#140000
1!
1:
1>
0=
0<
1L
0K
0C
1B
1C
1,
0+
#160000
0!
0:
#180000
1!
1:
1<
1M
0L
0A
0B
1+
0*
0C
#200000
b1111 "
b111 "
b11 "
b1 "
b0 "
0!
0W
0V
0U
0T
0S
0:
0?
0@
#220000
b10000000 "
b11000000 "
b11100000 "
1#
b11110000 "
b11111000 "
1!
1T
1S
1R
1Q
1P
1D
1:
1A
1F
1E
1B
1'
1&
12
11
10
1%
1C
0E
02
01
00
0%
1=
0<
1N
0M
0A
1*
0)
#240000
0!
0:
#260000
1!
1:
1<
1O
0N
1A
1?
1@
1)
0(
#280000
0!
0:
#300000
1!
1:
0>
0=
0<
0O
1H
0?
0@
0/
1(
0C
1E
12
11
10
1%
#320000
0!
0:
#340000
1!
1:
1<
1I
0H
1/
0.
#360000
0!
0:
#380000
1!
1:
1=
0<
1J
0I
0A
1.
0-
#400000
0!
0:
#420000
1!
1:
1<
1K
0J
1A
1?
1@
1-
0,
1C
0E
02
01
00
0%
#440000
0!
0:
#460000
1!
1:
1>
0=
0<
1L
0K
0?
0@
1,
0+
#480000
0!
0:
#500000
1!
1:
1<
1M
0L
1+
0*
#520000
0!
0:
#540000
1!
1:
1=
0<
1N
0M
0A
1*
0)
#560000
b1111000 "
b111000 "
b11000 "
b1000 "
b0 "
0!
0T
0S
0R
0Q
0P
0:
0B
0C
1E
12
11
10
1%
#570000
0#
0D
0F
0E
0'
0&
02
01
00
0%
#580000
1!
1:
1<
1O
0N
1A
1?
1)
0(
#600000
0!
0:
#620000
1!
1:
0>
0=
0<
0O
1H
1B
0A
1@
0?
1C
0B
0@
0/
1(
0C
#640000
0!
0:
#650000
b100 "
b110 "
b111 "
b10111 "
b11111 "
1W
1V
1U
1T
1S
1?
1A
1@
1B
1C
#660000
1!
1:
1<
1I
0H
0A
0B
1/
0.
#680000
0!
0:
#700000
1!
1:
1=
0<
1J
0I
0?
1.
0-
#720000
0!
0:
#740000
1!
1:
1<
1K
0J
1A
1?
1-
0,
#760000
0!
0:
#780000
1!
1:
1>
0=
0<
1L
0K
0C
1B
1C
1,
0+
#800000
0!
0:
#820000
1!
1:
1<
1M
0L
0A
0B
1+
0*
0C
#840000
b11011 "
b11001 "
b11000 "
b1000 "
b0 "
0!
0W
0V
0U
0T
0S
0:
0?
0@
#860000
1!
1:
1=
0<
1N
0M
1*
0)
#880000
0!
0:
#900000
1!
1:
1<
1O
0N
1A
1?
1)
0(
#920000
0!
0:
#940000
1!
1:
0>
0=
0<
0O
1H
1B
0A
1@
0?
1C
0B
0@
0/
1(
0C
#960000
0!
0:
#980000
1!
1:
1<
1I
0H
1/
0.
