term_project/quartus/today/simulation/qsim/tpj.msim.vcd
$comment
	File created using the following command:
		vcd file tpj.msim.vcd -direction
$end
$date
	Tue Nov 30 20:02:02 2021
$end
$version
	ModelSim Version 2020.1
$end
$timescale
	1ps
$end

$scope module tpj_vlg_vec_tst $end
$var reg 1 ! CLK $end
$var reg 1 " RST $end
$var reg 8 # VAL_1_2 [7:0] $end
$var reg 8 $ VAL_1_3 [7:0] $end
$var reg 8 % VAL_1_4 [7:0] $end
$var reg 8 & VAL_1_5 [7:0] $end
$var reg 8 ' VAL_1_6 [7:0] $end
$var reg 8 ( VAL_1_7 [7:0] $end
$var reg 8 ) VAL_1_8 [7:0] $end
$var reg 8 * VAL_1_9 [7:0] $end
$var reg 1 + VAL_1_10 $end
$var reg 1 , VAL_1_11 $end
$var reg 1 - VAL_1_12 $end
$var reg 1 . VAL_1_13 $end
$var reg 1 / VAL_1_14 $end
$var reg 1 0 VAL_1_15 $end
$var reg 1 1 VAL_1_16 $end
$var reg 1 2 VAL_1_17 $end
$var reg 1 3 VAL_1_100 $end
$var reg 1 4 VAL_1_101 $end
$var reg 1 5 VAL_1_102 $end
$var reg 1 6 VAL_1_103 $end
$var reg 1 7 VAL_1_104 $end
$var reg 1 8 VAL_1_105 $end
$var reg 1 9 VAL_1_106 $end
$var reg 1 : VAL_1_107 $end
$var reg 1 ; VAL_1_110 $end
$var reg 1 < VAL_1_111 $end
$var reg 1 = VAL_1_112 $end
$var reg 1 > VAL_1_113 $end
$var reg 1 ? VAL_1_114 $end
$var reg 1 @ VAL_1_115 $end
$var reg 1 A VAL_1_116 $end
$var reg 1 B VAL_1_117 $end
$var reg 1 C VAL_1_120 $end
$var reg 1 D VAL_1_121 $end
$var reg 1 E VAL_1_122 $end
$var reg 1 F VAL_1_123 $end
$var reg 1 G VAL_1_124 $end
$var reg 1 H VAL_1_125 $end
$var reg 1 I VAL_1_126 $end
$var reg 1 J VAL_1_127 $end
$var reg 1 K VAL_1_130 $end
$var reg 1 L VAL_1_131 $end
$var reg 1 M VAL_1_132 $end
$var reg 1 N VAL_1_133 $end
$var reg 1 O VAL_1_134 $end
$var reg 1 P VAL_1_135 $end
$var reg 1 Q VAL_1_136 $end
$var reg 1 R VAL_1_137 $end
$var reg 1 S VAL_1_140 $end
$var reg 1 T VAL_1_141 $end
$var reg 1 U VAL_1_142 $end
$var reg 1 V VAL_1_143 $end
$var reg 1 W VAL_1_144 $end
$var reg 1 X VAL_1_145 $end
$var reg 1 Y VAL_1_146 $end
$var reg 1 Z VAL_1_147 $end
$var reg 1 [ VAL_1_150 $end
$var reg 1 \ VAL_1_151 $end
$var reg 1 ] VAL_1_152 $end
$var reg 1 ^ VAL_1_153 $end
$var reg 1 _ VAL_1_154 $end
$var reg 1 ` VAL_1_155 $end
$var reg 1 a VAL_1_156 $end
$var reg 1 b VAL_1_157 $end
$var reg 1 c VAL_1_160 $end
$var reg 1 d VAL_1_161 $end
$var reg 1 e VAL_1_162 $end
$var reg 1 f VAL_1_163 $end
$var reg 1 g VAL_1_164 $end
$var reg 1 h VAL_1_165 $end
$var reg 1 i VAL_1_166 $end
$var reg 1 j VAL_1_167 $end
$var wire 1 k LCD_DATA [7] $end
$var wire 1 l LCD_DATA [6] $end
$var wire 1 m LCD_DATA [5] $end
$var wire 1 n LCD_DATA [4] $end
$var wire 1 o LCD_DATA [3] $end
$var wire 1 p LCD_DATA [2] $end
$var wire 1 q LCD_DATA [1] $end
$var wire 1 r LCD_DATA [0] $end
$var wire 1 s LCD_E $end
$var wire 1 t LCD_RS $end
$var wire 1 u LCD_RW $end

$scope module i1 $end
$var wire 1 v gnd $end
$var wire 1 w vcc $end
$var wire 1 x unknown $end
$var tri1 1 y devclrn $end
$var tri1 1 z devpor $end
$var tri1 1 { devoe $end
$var wire 1 | VAL_1_127~combout $end
$var wire 1 } CLK~combout $end
$var wire 1 ~ RST~combout $end
$var wire 1 !! inst|inst~regout $end
$var wire 1 "! inst|inst1~regout $end
$var wire 1 #! inst|inst2~regout $end
$var wire 1 $! VAL_1_117~combout $end
$var wire 1 %! inst|inst3~regout $end
$var wire 1 &! inst2|inst4|inst2|inst10~2_combout $end
$var wire 1 '! VAL_1_107~combout $end
$var wire 1 (! inst2|inst4|inst2|inst10~3_combout $end
$var wire 1 )! VAL_1_17~combout $end
$var wire 1 *! inst2|inst4|inst2|inst10~4_combout $end
$var wire 1 +! inst2|inst4|inst2|inst10~5_combout $end
$var wire 1 ,! inst2|inst4|inst2|inst10~6_combout $end
$var wire 1 -! VAL_1_147~combout $end
$var wire 1 .! VAL_1_137~combout $end
$var wire 1 /! inst2|inst4|inst2|inst10~7_combout $end
$var wire 1 0! VAL_1_167~combout $end
$var wire 1 1! VAL_1_157~combout $end
$var wire 1 2! inst2|inst4|inst2|inst10~8_combout $end
$var wire 1 3! inst2|inst4|inst2|inst10~0_combout $end
$var wire 1 4! inst2|inst4|inst2|inst10~1_combout $end
$var wire 1 5! inst2|inst4|inst2|inst10~9_combout $end
$var wire 1 6! VAL_1_146~combout $end
$var wire 1 7! VAL_1_106~combout $end
$var wire 1 8! inst2|inst4|inst2|inst19~0_combout $end
$var wire 1 9! inst2|inst4|inst2|inst19~1_combout $end
$var wire 1 :! VAL_1_166~combout $end
$var wire 1 ;! VAL_1_126~combout $end
$var wire 1 <! inst2|inst4|inst2|inst19~7_combout $end
$var wire 1 =! inst2|inst4|inst2|inst19~8_combout $end
$var wire 1 >! inst2|inst4|inst2|inst19~2_combout $end
$var wire 1 ?! VAL_1_156~combout $end
$var wire 1 @! VAL_1_116~combout $end
$var wire 1 A! inst2|inst4|inst2|inst19~3_combout $end
$var wire 1 B! VAL_1_136~combout $end
$var wire 1 C! VAL_1_16~combout $end
$var wire 1 D! inst2|inst4|inst2|inst19~4_combout $end
$var wire 1 E! inst2|inst4|inst2|inst19~5_combout $end
$var wire 1 F! inst2|inst4|inst2|inst19~6_combout $end
$var wire 1 G! inst2|inst4|inst2|inst19~9_combout $end
$var wire 1 H! VAL_1_165~combout $end
$var wire 1 I! VAL_1_145~combout $end
$var wire 1 J! VAL_1_155~combout $end
$var wire 1 K! VAL_1_135~combout $end
$var wire 1 L! inst2|inst4|inst2|inst20~7_combout $end
$var wire 1 M! inst2|inst4|inst2|inst20~8_combout $end
$var wire 1 N! VAL_1_105~combout $end
$var wire 1 O! inst2|inst4|inst2|inst20~0_combout $end
$var wire 1 P! VAL_1_125~combout $end
$var wire 1 Q! VAL_1_115~combout $end
$var wire 1 R! inst2|inst4|inst2|inst20~1_combout $end
$var wire 1 S! inst2|inst4|inst2|inst20~2_combout $end
$var wire 1 T! inst2|inst4|inst2|inst20~3_combout $end
$var wire 1 U! VAL_1_15~combout $end
$var wire 1 V! inst2|inst4|inst2|inst20~4_combout $end
$var wire 1 W! inst2|inst4|inst2|inst20~5_combout $end
$var wire 1 X! inst2|inst4|inst2|inst20~6_combout $end
$var wire 1 Y! inst2|inst4|inst2|inst20~9_combout $end
$var wire 1 Z! VAL_1_14~combout $end
$var wire 1 [! inst2|inst4|inst2|inst21~4_combout $end
$var wire 1 \! VAL_1_134~combout $end
$var wire 1 ]! inst2|inst4|inst2|inst21~5_combout $end
$var wire 1 ^! VAL_1_104~combout $end
$var wire 1 _! inst2|inst4|inst2|inst21~2_combout $end
$var wire 1 `! VAL_1_144~combout $end
$var wire 1 a! inst2|inst4|inst2|inst21~3_combout $end
$var wire 1 b! inst2|inst4|inst2|inst21~6_combout $end
$var wire 1 c! VAL_1_124~combout $end
$var wire 1 d! VAL_1_164~combout $end
$var wire 1 e! inst2|inst4|inst2|inst21~7_combout $end
$var wire 1 f! inst2|inst4|inst2|inst21~8_combout $end
$var wire 1 g! VAL_1_154~combout $end
$var wire 1 h! VAL_1_114~combout $end
$var wire 1 i! inst2|inst4|inst2|inst21~0_combout $end
$var wire 1 j! inst2|inst4|inst2|inst21~1_combout $end
$var wire 1 k! inst2|inst4|inst2|inst21~9_combout $end
$var wire 1 l! VAL_1_163~combout $end
$var wire 1 m! VAL_1_133~combout $end
$var wire 1 n! VAL_1_143~combout $end
$var wire 1 o! inst2|inst4|inst2|inst22~7_combout $end
$var wire 1 p! VAL_1_153~combout $end
$var wire 1 q! inst2|inst4|inst2|inst22~8_combout $end
$var wire 1 r! VAL_1_13~combout $end
$var wire 1 s! inst2|inst4|inst2|inst22~4_combout $end
$var wire 1 t! inst2|inst4|inst2|inst22~5_combout $end
$var wire 1 u! VAL_1_113~combout $end
$var wire 1 v! inst2|inst4|inst2|inst22~2_combout $end
$var wire 1 w! VAL_1_123~combout $end
$var wire 1 x! VAL_1_103~combout $end
$var wire 1 y! inst2|inst4|inst2|inst22~3_combout $end
$var wire 1 z! inst2|inst4|inst2|inst22~6_combout $end
$var wire 1 {! inst2|inst4|inst2|inst22~0_combout $end
$var wire 1 |! inst2|inst4|inst2|inst22~1_combout $end
$var wire 1 }! inst2|inst4|inst2|inst22~9_combout $end
$var wire 1 ~! VAL_1_142~combout $end
$var wire 1 !" VAL_1_102~combout $end
$var wire 1 "" inst2|inst4|inst2|inst23~0_combout $end
$var wire 1 #" inst2|inst4|inst2|inst23~1_combout $end
$var wire 1 $" VAL_1_162~combout $end
$var wire 1 %" VAL_1_122~combout $end
$var wire 1 &" inst2|inst4|inst2|inst23~7_combout $end
$var wire 1 '" inst2|inst4|inst2|inst23~8_combout $end
$var wire 1 (" VAL_1_132~combout $end
$var wire 1 )" VAL_1_12~combout $end
$var wire 1 *" inst2|inst4|inst2|inst23~4_combout $end
$var wire 1 +" inst2|inst4|inst2|inst23~5_combout $end
$var wire 1 ," VAL_1_152~combout $end
$var wire 1 -" VAL_1_112~combout $end
$var wire 1 ." inst2|inst4|inst2|inst23~2_combout $end
$var wire 1 /" inst2|inst4|inst2|inst23~3_combout $end
$var wire 1 0" inst2|inst4|inst2|inst23~6_combout $end
$var wire 1 1" inst2|inst4|inst2|inst23~9_combout $end
$var wire 1 2" VAL_1_101~combout $end
$var wire 1 3" inst2|inst4|inst2|inst24~0_combout $end
$var wire 1 4" VAL_1_121~combout $end
$var wire 1 5" VAL_1_111~combout $end
$var wire 1 6" inst2|inst4|inst2|inst24~1_combout $end
$var wire 1 7" VAL_1_151~combout $end
$var wire 1 8" VAL_1_131~combout $end
$var wire 1 9" inst2|inst4|inst2|inst24~7_combout $end
$var wire 1 :" VAL_1_141~combout $end
$var wire 1 ;" VAL_1_161~combout $end
$var wire 1 <" inst2|inst4|inst2|inst24~8_combout $end
$var wire 1 =" VAL_1_11~combout $end
$var wire 1 >" inst2|inst4|inst2|inst24~4_combout $end
$var wire 1 ?" inst2|inst4|inst2|inst24~5_combout $end
$var wire 1 @" inst2|inst4|inst2|inst24~2_combout $end
$var wire 1 A" inst2|inst4|inst2|inst24~3_combout $end
$var wire 1 B" inst2|inst4|inst2|inst24~6_combout $end
$var wire 1 C" inst2|inst4|inst2|inst24~9_combout $end
$var wire 1 D" VAL_1_110~combout $end
$var wire 1 E" inst2|inst4|inst2|inst25~0_combout $end
$var wire 1 F" VAL_1_150~combout $end
$var wire 1 G" inst2|inst4|inst2|inst25~1_combout $end
$var wire 1 H" VAL_1_130~combout $end
$var wire 1 I" VAL_1_10~combout $end
$var wire 1 J" inst2|inst4|inst2|inst25~4_combout $end
$var wire 1 K" inst2|inst4|inst2|inst25~5_combout $end
$var wire 1 L" VAL_1_100~combout $end
$var wire 1 M" VAL_1_140~combout $end
$var wire 1 N" inst2|inst4|inst2|inst25~2_combout $end
$var wire 1 O" inst2|inst4|inst2|inst25~3_combout $end
$var wire 1 P" inst2|inst4|inst2|inst25~6_combout $end
$var wire 1 Q" VAL_1_120~combout $end
$var wire 1 R" inst2|inst4|inst2|inst25~7_combout $end
$var wire 1 S" VAL_1_160~combout $end
$var wire 1 T" inst2|inst4|inst2|inst25~8_combout $end
$var wire 1 U" inst2|inst4|inst2|inst25~9_combout $end
$var wire 1 V" VAL_1_7~combout [7] $end
$var wire 1 W" VAL_1_7~combout [6] $end
$var wire 1 X" VAL_1_7~combout [5] $end
$var wire 1 Y" VAL_1_7~combout [4] $end
$var wire 1 Z" VAL_1_7~combout [3] $end
$var wire 1 [" VAL_1_7~combout [2] $end
$var wire 1 \" VAL_1_7~combout [1] $end
$var wire 1 ]" VAL_1_7~combout [0] $end
$var wire 1 ^" VAL_1_6~combout [7] $end
$var wire 1 _" VAL_1_6~combout [6] $end
$var wire 1 `" VAL_1_6~combout [5] $end
$var wire 1 a" VAL_1_6~combout [4] $end
$var wire 1 b" VAL_1_6~combout [3] $end
$var wire 1 c" VAL_1_6~combout [2] $end
$var wire 1 d" VAL_1_6~combout [1] $end
$var wire 1 e" VAL_1_6~combout [0] $end
$var wire 1 f" VAL_1_5~combout [7] $end
$var wire 1 g" VAL_1_5~combout [6] $end
$var wire 1 h" VAL_1_5~combout [5] $end
$var wire 1 i" VAL_1_5~combout [4] $end
$var wire 1 j" VAL_1_5~combout [3] $end
$var wire 1 k" VAL_1_5~combout [2] $end
$var wire 1 l" VAL_1_5~combout [1] $end
$var wire 1 m" VAL_1_5~combout [0] $end
$var wire 1 n" VAL_1_8~combout [7] $end
$var wire 1 o" VAL_1_8~combout [6] $end
$var wire 1 p" VAL_1_8~combout [5] $end
$var wire 1 q" VAL_1_8~combout [4] $end
$var wire 1 r" VAL_1_8~combout [3] $end
$var wire 1 s" VAL_1_8~combout [2] $end
$var wire 1 t" VAL_1_8~combout [1] $end
$var wire 1 u" VAL_1_8~combout [0] $end
$var wire 1 v" VAL_1_9~combout [7] $end
$var wire 1 w" VAL_1_9~combout [6] $end
$var wire 1 x" VAL_1_9~combout [5] $end
$var wire 1 y" VAL_1_9~combout [4] $end
$var wire 1 z" VAL_1_9~combout [3] $end
$var wire 1 {" VAL_1_9~combout [2] $end
$var wire 1 |" VAL_1_9~combout [1] $end
$var wire 1 }" VAL_1_9~combout [0] $end
$var wire 1 ~" VAL_1_2~combout [7] $end
$var wire 1 !# VAL_1_2~combout [6] $end
$var wire 1 "# VAL_1_2~combout [5] $end
$var wire 1 ## VAL_1_2~combout [4] $end
$var wire 1 $# VAL_1_2~combout [3] $end
$var wire 1 %# VAL_1_2~combout [2] $end
$var wire 1 &# VAL_1_2~combout [1] $end
$var wire 1 '# VAL_1_2~combout [0] $end
$var wire 1 (# VAL_1_3~combout [7] $end
$var wire 1 )# VAL_1_3~combout [6] $end
$var wire 1 *# VAL_1_3~combout [5] $end
$var wire 1 +# VAL_1_3~combout [4] $end
$var wire 1 ,# VAL_1_3~combout [3] $end
$var wire 1 -# VAL_1_3~combout [2] $end
$var wire 1 .# VAL_1_3~combout [1] $end
$var wire 1 /# VAL_1_3~combout [0] $end
$var wire 1 0# VAL_1_4~combout [7] $end
$var wire 1 1# VAL_1_4~combout [6] $end
$var wire 1 2# VAL_1_4~combout [5] $end
$var wire 1 3# VAL_1_4~combout [4] $end
$var wire 1 4# VAL_1_4~combout [3] $end
$var wire 1 5# VAL_1_4~combout [2] $end
$var wire 1 6# VAL_1_4~combout [1] $end
$var wire 1 7# VAL_1_4~combout [0] $end
$upscope $end
$upscope $end
$enddefinitions $end
#0
$dumpvars
0!
0"
b0 #
b0 $
b0 %
b0 &
b0 '
b0 (
b0 )
b0 *
0+
0,
0-
0.
1/
10
01
02
03
04
05
06
07
08
09
0:
0;
0<
0=
0>
0?
0@
0A
0B
0C
0D
0E
0F
0G
0H
0I
0J
0K
0L
0M
0N
0O
0P
0Q
0R
0S
0T
0U
0V
0W
0X
0Y
0Z
0[
0\
0]
0^
0_
0`
0a
0b
0c
0d
0e
0f
0g
0h
0i
0j
0r
0q
0p
0o
1n
1m
0l
0k
0s
0t
0u
0v
1w
xx
1y
1z
1{
0|
0}
0~
0!!
0"!
0#!
0$!
0%!
0&!
0'!
0(!
0)!
0*!
0+!
0,!
0-!
0.!
0/!
00!
01!
02!
03!
04!
05!
06!
07!
08!
09!
0:!
0;!
0<!
0=!
0>!
0?!
0@!
0A!
0B!
0C!
0D!
0E!
0F!
0G!
0H!
0I!
0J!
0K!
0L!
0M!
0N!
0O!
0P!
0Q!
0R!
0S!
0T!
1U!
1V!
1W!
1X!
1Y!
1Z!
1[!
0\!
1]!
0^!
0_!
0`!
0a!
1b!
0c!
0d!
0e!
0f!
0g!
0h!
0i!
0j!
1k!
0l!
0m!
0n!
0o!
0p!
0q!
0r!
0s!
0t!
0u!
0v!
0w!
0x!
0y!
0z!
0{!
0|!
0}!
0~!
0!"
0""
0#"
0$"
0%"
0&"
0'"
0("
0)"
0*"
0+"
0,"
0-"
0."
0/"
00"
01"
02"
03"
04"
05"
06"
07"
08"
09"
0:"
0;"
0<"
0="
0>"
0?"
0@"
0A"
0B"
0C"
0D"
0E"
0F"
0G"
0H"
0I"
0J"
0K"
0L"
0M"
0N"
0O"
0P"
0Q"
0R"
0S"
0T"
0U"
0]"
0\"
0["
0Z"
0Y"
0X"
0W"
0V"
0e"
0d"
0c"
0b"
0a"
0`"
0_"
0^"
0m"
0l"
0k"
0j"
0i"
0h"
0g"
0f"
0u"
0t"
0s"
0r"
0q"
0p"
0o"
0n"
0}"
0|"
0{"
0z"
0y"
0x"
0w"
0v"
0'#
0&#
0%#
0$#
0##
0"#
0!#
0~"
0/#
0.#
0-#
0,#
0+#
0*#
0)#
0(#
07#
06#
05#
04#
03#
02#
01#
00#
$end
#30000
1!
1}
1!!
0[!
0Y!
0X!
0]!
0m
0b!
0k!
0n
#60000
0!
0}
#90000
0/
00
b1000000 #
b1100000 #
b1110000 #
1!
0Z!
0U!
1##
1"#
1!#
1}
0V!
0W!
1"!
0!!
#120000
0!
0}
#150000
1!
1}
1!!
1R"
1N"
1J"
1E"
1B"
1."
1*"
1&"
1""
1z!
1i!
1e!
1_!
1[!
1X!
1D!
1>!
1<!
18!
1,!
#160000
b10000000 $
b11000000 $
b11100000 $
b110000 #
b10000 #
b0 #
0##
0"#
0!#
1*#
1)#
1(#
#180000
0!
0}
#210000
b1000000 %
b1100000 %
b1110000 %
b1111000 %
1!
14#
13#
12#
11#
1}
1#!
0"!
0!!
1W!
1*!
0R"
0N"
1K"
0J"
1G"
0E"
0B"
0."
0*"
1'"
0&"
1#"
0""
1}!
0z!
1j!
0i!
0_!
1]!
0[!
0X!
0D!
1=!
19!
08!
15!
0,!
1T"
1O"
1C"
1/"
1+"
1f!
1a!
1Y!
1E!
1A!
1X!
1+!
0T"
0O"
0K"
1U"
0G"
0C"
0/"
0+"
0'"
0#"
0}!
1k!
0j!
0a!
0]!
0Y!
0E!
09!
05!
10"
1F!
1o
1k
1q
1m
1Y!
1,!
0U"
00"
11"
0k!
1G!
1r
0q
0o
1n
0m
0k
15!
01"
1m
0r
1p
0n
1l
1k
0p
#220000
b1100000 $
b100000 $
b0 $
0*#
0)#
0(#
0W!
0>!
0*!
0X!
0A!
0+!
0Y!
0F!
0,!
0G!
05!
0m
0l
0k
#240000
0!
0}
#270000
b111000 %
b11000 %
b1000 %
b0 %
1!
04#
03#
02#
01#
1}
0e!
0<!
0f!
0=!
1!!
#300000
0!
0}
#330000
1!
1}
1"!
0!!
#360000
0!
0}
#390000
1!
1}
1!!
1R"
1N"
1J"
1E"
1B"
1."
1*"
1&"
1""
1z!
1i!
1e!
1_!
1[!
1X!
1D!
1>!
1<!
18!
1,!
#420000
0!
0}
#450000
1!
1}
1%!
0#!
0"!
0!!
0R"
0N"
1K"
0J"
1G"
0E"
0B"
0."
0*"
1'"
0&"
1#"
0""
1}!
0z!
1j!
0i!
0e!
0_!
1]!
0[!
0X!
0D!
0>!
1=!
0<!
19!
08!
15!
0,!
1T"
1O"
1C"
1/"
1+"
1f!
1a!
1Y!
1E!
1A!
0T"
0O"
1P"
0K"
0G"
0C"
0/"
0+"
11"
0'"
0#"
0}!
0j!
0f!
0a!
1b!
0]!
0Y!
0E!
0A!
1G!
0=!
09!
05!
1o
1k
1q
1m
1U"
0P"
01"
1k!
0b!
0G!
0q
1p
0o
0m
1l
0k
0U"
0k!
1r
0p
1n
0l
0r
0n
#480000
0!
0}
#510000
1!
1}
1!!
#540000
0!
0}
#570000
1!
1}
1"!
0!!
#600000
0!
0}
#630000
1!
1}
1!!
1R"
1N"
1J"
1E"
1B"
1."
1*"
1&"
1""
1z!
1i!
1e!
1_!
1[!
1X!
1D!
1>!
1<!
18!
1,!
#660000
0!
0}
#690000
1!
1}
1#!
0"!
0!!
1P"
1@"
1>"
19"
13"
10"
1{!
1v!
1s!
1o!
1b!
1V!
1S!
1O!
1L!
1F!
13!
1/!
1*!
1&!
0R"
0N"
1K"
0J"
1G"
0E"
0B"
0."
0*"
1'"
0&"
1#"
0""
1}!
0z!
1j!
0i!
0e!
0_!
1]!
0[!
0X!
0D!
0>!
1=!
0<!
19!
08!
15!
0,!
1T"
1O"
1C"
1/"
1+"
1f!
1a!
1Y!
1E!
1A!
1U"
11"
1k!
1G!
0T"
0O"
0K"
0G"
0C"
0/"
0+"
0'"
0#"
0}!
0j!
0f!
0a!
0]!
0Y!
0E!
0A!
0=!
09!
05!
1o
1k
1q
1m
0U"
01"
0k!
0G!
1r
1p
1n
1l
0q
0o
0m
0k
0r
0p
0n
0l
#720000
0!
0}
#750000
1!
1}
1!!
#780000
0!
0}
#810000
1!
1}
1"!
0!!
#840000
0!
0}
#870000
1!
1}
1!!
1R"
1N"
1J"
1E"
1B"
1."
1*"
1&"
1""
1z!
1i!
1e!
1_!
1[!
1X!
1D!
1>!
1<!
18!
1,!
#900000
0!
0}
#930000
1!
1}
0%!
0#!
0"!
0!!
0P"
1A"
0@"
0>"
1<"
09"
03"
11"
00"
0{!
1y!
0v!
1t!
0s!
0o!
0b!
0V!
1T!
0S!
0O!
1M!
0L!
1G!
0F!
03!
0/!
1+!
0*!
1(!
0&!
1U"
1?"
16"
1|!
1q!
1k!
1W!
1R!
14!
12!
0R"
0N"
1K"
0J"
1G"
0E"
0B"
0."
0*"
1'"
0&"
1#"
0""
1}!
0z!
1j!
0i!
0e!
0_!
1]!
0[!
0X!
0D!
0>!
1=!
0<!
19!
08!
15!
0,!
1T"
1O"
1C"
1/"
1+"
1f!
1a!
1Y!
1E!
1A!
0U"
1B"
0A"
0?"
0C"
0<"
06"
01"
0|!
1z!
0y!
0t!
0q!
0k!
0W!
1X!
0T!
0R!
0Y!
0M!
0G!
04!
02!
1,!
0+!
0(!
0}!
05!
0T"
0O"
1P"
0K"
0G"
0/"
0+"
0'"
0#"
0j!
0f!
0a!
1b!
0]!
0E!
0A!
0=!
09!
10"
1F!
1p
1l
1r
1n
1o
1k
1q
1m
1C"
0B"
1}!
0z!
0X!
1Y!
15!
0,!
1U"
0P"
00"
11"
1k!
0b!
0F!
1G!
0r
0q
0p
0n
0m
0l
0o
0k
0C"
0}!
0Y!
05!
0U"
01"
0k!
0G!
1q
1o
1m
1k
1r
1p
1n
1l
0q
0o
0m
0k
0r
0p
0n
0l
#960000
0!
0}
#990000
1!
1}
1!!
